%YAML 1.1
%TAG !u! tag:unity3d.com,2011:
--- !u!114 &11400000
MonoBehaviour:
  m_ObjectHideFlags: 0
  m_CorrespondingSourceObject: {fileID: 0}
  m_PrefabInstance: {fileID: 0}
  m_PrefabAsset: {fileID: 0}
  m_GameObject: {fileID: 0}
  m_Enabled: 1
  m_EditorHideFlags: 0
  m_Script: {fileID: 11500000, guid: 52e397e47149a3d4fae96a6682680936, type: 3}
  m_Name: SandboxBrick
  m_EditorClassIdentifier: 
  BuildingPrefabs: {fileID: 4501193663116834885, guid: 891c9331f9ef0d64fbaaa21d7faabf87,
    type: 3}
  HalfExtents: {x: 0.49, y: 0.49, z: 0.49}
  BuildingId: 0
